Liesl Eckstrom - Mini Project 3
…
This graph plots censor number and type from Kidz Bop songs grouped by genre. From this graph we can learn about the different genres of music that Kidz Bop censors, and the different censor types used by each genre. We can see that the most common song that Kidz Bop creates censored versions of is pop, followed by edm, r&b, latin, music that has no genre classification, rock, and lastly rap. This tells us about the kind of music that kids are interested in hearing because Kidz Bop would only censor and produce music that will do well with their target audience. From this graph we can also learn about the different types of censors that happen most in each genre type. For example in the pop genre we can see that alcohol & drugs is the most common censor type and the least common is identity.

Problem!!

If you’re curious about the specific values of the variables represented in the graph I’ve created a tibble below with these numbers. if you have time actually make this 6 tibbles with the different genres

tibble(censor_type_and_genre) |>
  mutate("Playlist Genre" = genre,
         "Censor Type" = category,
         "Number of Censors" = n) |>
  select(-genre, -category, -n) 

# A tibble: 42 × 3
   `Playlist Genre` `Censor Type`   `Number of Censors`
   <chr>            <chr>                         <int>
 1 edm              alcohol & drugs                 201
 2 edm              identity                         15
 3 edm              other                            60
 4 edm              profanity                       107
 5 edm              sexual                          167
 6 edm              violence                         82
 7 latin            alcohol & drugs                  98
 8 latin            identity                         31
 9 latin            other                            30
10 latin            profanity                       109
# ℹ 32 more rows
…
